{
  "nodes": [
    {
      "group": 0,
      "id": 0
    },
    {
      "group": 1,
      "id": 1
    },
    {
      "group": 2,
      "id": 2
    },
    {
      "group": 3,
      "id": 3
    },
    {
      "group": 0,
      "id": 4
    },
    {
      "group": 1,
      "id": 5
    },
    {
      "group": 2,
      "id": 6
    },
    {
      "group": 3,
      "id": 7
    },
    {
      "group": 0,
      "id": 8
    },
    {
      "group": 1,
      "id": 9
    },
    {
      "group": 2,
      "id": 10
    },
    {
      "group": 3,
      "id": 11
    },
    {
      "group": 0,
      "id": 12
    },
    {
      "group": 1,
      "id": 13
    },
    {
      "group": 2,
      "id": 14
    },
    {
      "group": 3,
      "id": 15
    },
    {
      "group": 0,
      "id": 16
    },
    {
      "group": 1,
      "id": 17
    },
    {
      "group": 2,
      "id": 18
    },
    {
      "group": 3,
      "id": 19
    }
  ],
  "links": [
    {
      "source": 3,
      "target": 9,
      "value": 3
    },
    {
      "source": 0,
      "target": 9,
      "value": 3
    },
    {
      "source": 14,
      "target": 5,
      "value": 2
    },
    {
      "source": 19,
      "target": 1,
      "value": 4
    },
    {
      "source": 16,
      "target": 18,
      "value": 4
    },
    {
      "source": 19,
      "target": 19,
      "value": 2
    },
    {
      "source": 16,
      "target": 2,
      "value": 3
    },
    {
      "source": 17,
      "target": 1,
      "value": 4
    },
    {
      "source": 15,
      "target": 14,
      "value": 4
    },
    {
      "source": 19,
      "target": 7,
      "value": 2
    },
    {
      "source": 17,
      "target": 11,
      "value": 1
    },
    {
      "source": 18,
      "target": 14,
      "value": 4
    },
    {
      "source": 8,
      "target": 18,
      "value": 1
    },
    {
      "source": 10,
      "target": 12,
      "value": 2
    },
    {
      "source": 4,
      "target": 8,
      "value": 1
    },
    {
      "source": 10,
      "target": 15,
      "value": 3
    },
    {
      "source": 7,
      "target": 2,
      "value": 3
    },
    {
      "source": 13,
      "target": 7,
      "value": 2
    },
    {
      "source": 5,
      "target": 10,
      "value": 3
    },
    {
      "source": 18,
      "target": 5,
      "value": 1
    },
    {
      "source": 11,
      "target": 5,
      "value": 3
    },
    {
      "source": 14,
      "target": 17,
      "value": 1
    },
    {
      "source": 2,
      "target": 1,
      "value": 4
    },
    {
      "source": 2,
      "target": 19,
      "value": 2
    },
    {
      "source": 19,
      "target": 10,
      "value": 4
    },
    {
      "source": 8,
      "target": 7,
      "value": 2
    },
    {
      "source": 2,
      "target": 13,
      "value": 4
    },
    {
      "source": 17,
      "target": 3,
      "value": 3
    },
    {
      "source": 18,
      "target": 19,
      "value": 2
    },
    {
      "source": 8,
      "target": 4,
      "value": 3
    },
    {
      "source": 11,
      "target": 16,
      "value": 3
    },
    {
      "source": 4,
      "target": 15,
      "value": 4
    },
    {
      "source": 14,
      "target": 3,
      "value": 3
    },
    {
      "source": 8,
      "target": 19,
      "value": 2
    },
    {
      "source": 1,
      "target": 10,
      "value": 3
    },
    {
      "source": 19,
      "target": 18,
      "value": 2
    },
    {
      "source": 15,
      "target": 9,
      "value": 4
    },
    {
      "source": 15,
      "target": 8,
      "value": 1
    },
    {
      "source": 15,
      "target": 16,
      "value": 1
    },
    {
      "source": 12,
      "target": 12,
      "value": 3
    },
    {
      "source": 17,
      "target": 14,
      "value": 2
    },
    {
      "source": 12,
      "target": 6,
      "value": 2
    },
    {
      "source": 2,
      "target": 7,
      "value": 1
    },
    {
      "source": 9,
      "target": 15,
      "value": 4
    },
    {
      "source": 2,
      "target": 11,
      "value": 1
    },
    {
      "source": 16,
      "target": 14,
      "value": 4
    },
    {
      "source": 13,
      "target": 2,
      "value": 3
    },
    {
      "source": 8,
      "target": 6,
      "value": 4
    },
    {
      "source": 15,
      "target": 1,
      "value": 1
    },
    {
      "source": 14,
      "target": 11,
      "value": 3
    },
    {
      "source": 4,
      "target": 8,
      "value": 3
    }
  ]
}